%!PS-Adobe-3.0 EPSF-3.0
%%Creator: (Apache XML Graphics Commons: EPS Generator for Java2D)
%%CreationDate: 2016-11-10T18:39:49
%%Pages: (atend)
%%BoundingBox: 0 0 556 913
%%LanguageLevel: 3
%%EndComments
%%BeginProlog
%%BeginResource: procset (Apache XML Graphics Std ProcSet) 1.1 0
%%Version: 1.1 0
%%Copyright: (Copyright 2001-2003,2010 The Apache Software Foundation. License terms: http://www.apache.org/licenses/LICENSE-2.0)
%%Title: (Basic set of procedures used by the XML Graphics project \(Batik and FOP\))
/bd{bind def}bind def
/ld{load def}bd
/GR/grestore ld
/M/moveto ld
/LJ/setlinejoin ld
/C/curveto ld
/f/fill ld
/LW/setlinewidth ld
/GC/setgray ld
/t/show ld
/N/newpath ld
/CT/concat ld
/cp/closepath ld
/S/stroke ld
/L/lineto ld
/CC/setcmykcolor ld
/A/ashow ld
/GS/gsave ld
/RC/setrgbcolor ld
/RM/rmoveto ld
/ML/setmiterlimit ld
/re {4 2 roll M
1 index 0 rlineto
0 exch rlineto
neg 0 rlineto
cp } bd
/_ctm matrix def
/_tm matrix def
/BT { _ctm currentmatrix pop matrix _tm copy pop 0 0 moveto } bd
/ET { _ctm setmatrix } bd
/iTm { _ctm setmatrix _tm concat } bd
/Tm { _tm astore pop iTm 0 0 moveto } bd
/ux 0.0 def
/uy 0.0 def
/F {
  /Tp exch def
  /Tf exch def
  Tf findfont Tp scalefont setfont
  /cf Tf def  /cs Tp def  /cw ( ) stringwidth pop def
} bd
/ULS {currentpoint /uy exch def /ux exch def} bd
/ULE {
  /Tcx currentpoint pop def
  gsave
  newpath
  cf findfont cs scalefont dup
  /FontMatrix get 0 get /Ts exch def /FontInfo get dup
  /UnderlinePosition get Ts mul /To exch def
  /UnderlineThickness get Ts mul /Tt exch def
  ux uy To add moveto  Tcx uy To add lineto
  Tt setlinewidth stroke
  grestore
} bd
/OLE {
  /Tcx currentpoint pop def
  gsave
  newpath
  cf findfont cs scalefont dup
  /FontMatrix get 0 get /Ts exch def /FontInfo get dup
  /UnderlinePosition get Ts mul /To exch def
  /UnderlineThickness get Ts mul /Tt exch def
  ux uy To add cs add moveto Tcx uy To add cs add lineto
  Tt setlinewidth stroke
  grestore
} bd
/SOE {
  /Tcx currentpoint pop def
  gsave
  newpath
  cf findfont cs scalefont dup
  /FontMatrix get 0 get /Ts exch def /FontInfo get dup
  /UnderlinePosition get Ts mul /To exch def
  /UnderlineThickness get Ts mul /Tt exch def
  ux uy To add cs 10 mul 26 idiv add moveto Tcx uy To add cs 10 mul 26 idiv add lineto
  Tt setlinewidth stroke
  grestore
} bd
/QT {
/Y22 exch store
/X22 exch store
/Y21 exch store
/X21 exch store
currentpoint
/Y21 load 2 mul add 3 div exch
/X21 load 2 mul add 3 div exch
/X21 load 2 mul /X22 load add 3 div
/Y21 load 2 mul /Y22 load add 3 div
/X22 load /Y22 load curveto
} bd
/SSPD {
dup length /d exch dict def
{
/v exch def
/k exch def
currentpagedevice k known {
/cpdv currentpagedevice k get def
v cpdv ne {
/upd false def
/nullv v type /nulltype eq def
/nullcpdv cpdv type /nulltype eq def
nullv nullcpdv or
{
/upd true def
} {
/sametype v type cpdv type eq def
sametype {
v type /arraytype eq {
/vlen v length def
/cpdvlen cpdv length def
vlen cpdvlen eq {
0 1 vlen 1 sub {
/i exch def
/obj v i get def
/cpdobj cpdv i get def
obj cpdobj ne {
/upd true def
exit
} if
} for
} {
/upd true def
} ifelse
} {
v type /dicttype eq {
v {
/dv exch def
/dk exch def
/cpddv cpdv dk get def
dv cpddv ne {
/upd true def
exit
} if
} forall
} {
/upd true def
} ifelse
} ifelse
} if
} ifelse
upd true eq {
d k v put
} if
} if
} if
} forall
d length 0 gt {
d setpagedevice
} if
} bd
%%EndResource
%%BeginResource: procset (Apache XML Graphics EPS ProcSet) 1.0 0
%%Version: 1.0 0
%%Copyright: (Copyright 2002-2003 The Apache Software Foundation. License terms: http://www.apache.org/licenses/LICENSE-2.0)
%%Title: (EPS procedures used by the Apache XML Graphics project \(Batik and FOP\))
/BeginEPSF { %def
/b4_Inc_state save def         % Save state for cleanup
/dict_count countdictstack def % Count objects on dict stack
/op_count count 1 sub def      % Count objects on operand stack
userdict begin                 % Push userdict on dict stack
/showpage { } def              % Redefine showpage, { } = null proc
0 setgray 0 setlinecap         % Prepare graphics state
1 setlinewidth 0 setlinejoin
10 setmiterlimit [ ] 0 setdash newpath
/languagelevel where           % If level not equal to 1 then
{pop languagelevel             % set strokeadjust and
1 ne                           % overprint to their defaults.
{false setstrokeadjust false setoverprint
} if
} if
} bd
/EndEPSF { %def
count op_count sub {pop} repeat            % Clean up stacks
countdictstack dict_count sub {end} repeat
b4_Inc_state restore
} bd
%%EndResource
%%EndProlog
%%Page: 1 1
%%PageBoundingBox: 0 0 556 913
%%BeginPageSetup
%%PageOrientation: Portrait
/ReEncode { /MyEncoding exch def exch findfont dup length dict begin {def} forall /Encoding MyEncoding def currentdict end definefont } def
/Helvetica /HelveticaLatin1 ISOLatin1Encoding ReEncode
/Times /TimesLatin1 ISOLatin1Encoding ReEncode
/DP {/Points exch def Points 0 get Points 1 get M 2 2 Points length 1 sub {/i exch def Points i get Points i 1 add get L}for} def
[1 0 0 -1 0 913] CT
%%EndPageSetup
GS
1 GC
N
0 0 556 913 re
f
GR
GS
1 GC
N
486.5 114.125 M
486.5 798.875 L
69.5 114.125 L
cp
f
GR
GS
1 GC
N
486.5 798.875 M
69.5 798.875 L
69.5 114.125 L
cp
f
GR
GS
1 GC
N
486.5 114.125 M
486.5 798.875 L
486.5 798.875 L
cp
f
GR
GS
1 GC
N
69.5 114.125 M
69.5 798.875 L
69.5 798.875 L
cp
f
GR
GS
1 GC
N
486.5 114.125 M
486.5 798.875 L
69.5 114.125 L
cp
f
GR
GS
1 GC
N
486.5 798.875 M
69.5 798.875 L
69.5 114.125 L
cp
f
GR
GS
1 GC
N
486.5 114.125 M
486.5 114.125 L
486.5 798.875 L
cp
f
GR
GS
1 GC
N
69.5 114.125 M
69.5 114.125 L
69.5 798.875 L
cp
f
GR
GS
1 GC
N
486.5 114.125 M
69.5 114.125 L
486.5 114.125 L
cp
f
GR
GS
1 GC
N
69.5 114.125 M
69.5 114.125 L
486.5 114.125 L
cp
f
GR
GS
1 GC
N
486.5 798.875 M
69.5 798.875 L
486.5 798.875 L
cp
f
GR
GS
1 GC
N
69.5 798.875 M
69.5 798.875 L
486.5 798.875 L
cp
f
GR
/HelveticaLatin1 10 F
GS
[1 0 0 1 65.5 807.875] CT
-0.641 9.502 M 1 -1 scale
(0) t
GR
/HelveticaLatin1 10 F
GS
[1 0 0 1 194.5 807.875] CT
-0.828 9.502 M 1 -1 scale
(2\240000) t
GR
/HelveticaLatin1 10 F
GS
[1 0 0 1 333 807.875] CT
-0.516 9.502 M 1 -1 scale
(4\240000) t
GR
/HelveticaLatin1 10 F
GS
[1 0 0 1 472 807.875] CT
-0.672 9.502 M 1 -1 scale
(6\240000) t
GR
/HelveticaLatin1 10 F
GS
[1 0 0 1 125 807.875] CT
-1.5 9.502 M 1 -1 scale
(1\240000) t
GR
/HelveticaLatin1 10 F
GS
[1 0 0 1 264 807.875] CT
-1.016 9.502 M 1 -1 scale
(3\240000) t
GR
/HelveticaLatin1 10 F
GS
[1 0 0 1 403 807.875] CT
-1.219 9.502 M 1 -1 scale
(5\240000) t
GR
GS
10.0 ML
N
[69.5 798.875 69.5 804.875] DP
S
GR
GS
10.0 ML
N
[139 798.875 139 804.875] DP
S
GR
GS
10.0 ML
N
[208.5 798.875 208.5 804.875] DP
S
GR
GS
10.0 ML
N
[278 798.875 278 804.875] DP
S
GR
GS
10.0 ML
N
[347.5 798.875 347.5 804.875] DP
S
GR
GS
10.0 ML
N
[417 798.875 417 804.875] DP
S
GR
GS
10.0 ML
N
[486.5 798.875 486.5 804.875] DP
S
GR
GS
10.0 ML
N
[69.5 798.875 69.5 801.875] DP
S
GR
GS
10.0 ML
N
[104.25 798.875 104.25 801.875] DP
S
GR
GS
10.0 ML
N
[139 798.875 139 801.875] DP
S
GR
GS
10.0 ML
N
[173.75 798.875 173.75 801.875] DP
S
GR
GS
10.0 ML
N
[208.5 798.875 208.5 801.875] DP
S
GR
GS
10.0 ML
N
[243.25 798.875 243.25 801.875] DP
S
GR
GS
10.0 ML
N
[278 798.875 278 801.875] DP
S
GR
GS
10.0 ML
N
[312.75 798.875 312.75 801.875] DP
S
GR
GS
10.0 ML
N
[347.5 798.875 347.5 801.875] DP
S
GR
GS
10.0 ML
N
[382.25 798.875 382.25 801.875] DP
S
GR
GS
10.0 ML
N
[417 798.875 417 801.875] DP
S
GR
GS
10.0 ML
N
[451.75 798.875 451.75 801.875] DP
S
GR
GS
10.0 ML
N
[486.5 798.875 486.5 801.875] DP
S
GR
GS
10.0 ML
N
[486.5 798.875 69.5 798.875] DP
S
GR
/HelveticaLatin1 10 F
GS
[1 0 0 1 52.5 792.375] CT
-0.641 9.502 M 1 -1 scale
(0) t
GR
/HelveticaLatin1 10 F
GS
[1 0 0 1 41.5 640.20833] CT
-0.828 9.502 M 1 -1 scale
(200) t
GR
/HelveticaLatin1 10 F
GS
[1 0 0 1 40.5 488.04167] CT
-0.516 9.502 M 1 -1 scale
(400) t
GR
/HelveticaLatin1 10 F
GS
[1 0 0 1 40.5 335.875] CT
-0.672 9.502 M 1 -1 scale
(600) t
GR
/HelveticaLatin1 10 F
GS
[1 0 0 1 41.5 183.70833] CT
-0.859 9.502 M 1 -1 scale
(800) t
GR
/HelveticaLatin1 10 F
GS
[1 0 0 1 41.5 716.29167] CT
-1.5 9.502 M 1 -1 scale
(100) t
GR
/HelveticaLatin1 10 F
GS
[1 0 0 1 41.5 564.125] CT
-1.016 9.502 M 1 -1 scale
(300) t
GR
/HelveticaLatin1 10 F
GS
[1 0 0 1 41.5 411.95833] CT
-1.219 9.502 M 1 -1 scale
(500) t
GR
/HelveticaLatin1 10 F
GS
[1 0 0 1 41.5 259.79167] CT
-1.078 9.502 M 1 -1 scale
(700) t
GR
/HelveticaLatin1 10 F
GS
[1 0 0 1 41.5 107.625] CT
-0.766 9.502 M 1 -1 scale
(900) t
GR
/HelveticaLatin1 10 F
GS
[1 0 0 1 47.5 754.33333] CT
-1.219 9.502 M 1 -1 scale
(50) t
GR
/HelveticaLatin1 10 F
GS
[1 0 0 1 41.5 678.25] CT
-1.5 9.502 M 1 -1 scale
(150) t
GR
/HelveticaLatin1 10 F
GS
[1 0 0 1 41.5 602.16667] CT
-0.828 9.502 M 1 -1 scale
(250) t
GR
/HelveticaLatin1 10 F
GS
[1 0 0 1 41.5 526.08333] CT
-1.016 9.502 M 1 -1 scale
(350) t
GR
/HelveticaLatin1 10 F
GS
[1 0 0 1 40.5 450] CT
-0.516 9.502 M 1 -1 scale
(450) t
GR
/HelveticaLatin1 10 F
GS
[1 0 0 1 41.5 373.91667] CT
-1.219 9.502 M 1 -1 scale
(550) t
GR
/HelveticaLatin1 10 F
GS
[1 0 0 1 40.5 297.83333] CT
-0.672 9.502 M 1 -1 scale
(650) t
GR
/HelveticaLatin1 10 F
GS
[1 0 0 1 41.5 221.75] CT
-1.078 9.502 M 1 -1 scale
(750) t
GR
/HelveticaLatin1 10 F
GS
[1 0 0 1 41.5 145.66667] CT
-0.859 9.502 M 1 -1 scale
(850) t
GR
GS
10.0 ML
N
[69.5 798.875 63.5 798.875] DP
S
GR
GS
10.0 ML
N
[69.5 760.833 63.5 760.833] DP
S
GR
GS
10.0 ML
N
[69.5 722.792 63.5 722.792] DP
S
GR
GS
10.0 ML
N
[69.5 684.75 63.5 684.75] DP
S
GR
GS
10.0 ML
N
[69.5 646.708 63.5 646.708] DP
S
GR
GS
10.0 ML
N
[69.5 608.667 63.5 608.667] DP
S
GR
GS
10.0 ML
N
[69.5 570.625 63.5 570.625] DP
S
GR
GS
10.0 ML
N
[69.5 532.583 63.5 532.583] DP
S
GR
GS
10.0 ML
N
[69.5 494.542 63.5 494.542] DP
S
GR
GS
10.0 ML
N
[69.5 456.5 63.5 456.5] DP
S
GR
GS
10.0 ML
N
[69.5 418.458 63.5 418.458] DP
S
GR
GS
10.0 ML
N
[69.5 380.417 63.5 380.417] DP
S
GR
GS
10.0 ML
N
[69.5 342.375 63.5 342.375] DP
S
GR
GS
10.0 ML
N
[69.5 304.333 63.5 304.333] DP
S
GR
GS
10.0 ML
N
[69.5 266.292 63.5 266.292] DP
S
GR
GS
10.0 ML
N
[69.5 228.25 63.5 228.25] DP
S
GR
GS
10.0 ML
N
[69.5 190.208 63.5 190.208] DP
S
GR
GS
10.0 ML
N
[69.5 152.167 63.5 152.167] DP
S
GR
GS
10.0 ML
N
[69.5 114.125 63.5 114.125] DP
S
GR
GS
10.0 ML
N
[69.5 114.125 69.5 798.875] DP
S
GR
/HelveticaLatin1 10 F
GS
[1 0 0 1 206 823.875] CT
1.062 11.502 M 1 -1 scale
(Nombre de noeuds de l'arbre) t
GR
/HelveticaLatin1 10 F
GS
[-0 -1 1 0 20.5 510] CT
1.906 11.502 M 1 -1 scale
(Temps \(en secondes\)) t
GR
GS
[1 0 0 1 69.8475 798.87347] CT
1 0 0 RC
10.0 ML
N
[-3 0 3 0] DP
S
GR
GS
[1 0 0 1 69.8475 798.87347] CT
1 0 0 RC
10.0 ML
N
[0 -3 0 3] DP
S
GR
GS
[1 0 0 1 69.8475 798.87347] CT
N
-0.352 -0.352 M
-0.352 0.008 L
0.008 0.008 L
-0.352 -0.352 L
cp
clip
1 0 0 RC
10.0 ML
N
[-2 -2 2 2] DP
S
GR
GS
[1 0 0 1 69.8475 798.87347] CT
N
-0.352 -0.352 M
-0.352 0.008 L
0.008 0.008 L
-0.352 -0.352 L
cp
clip
1 0 0 RC
10.0 ML
N
[-2 2 2 -2] DP
S
GR
GS
[1 0 0 1 69.8475 798.87347] CT
1 0 0 RC
10.0 ML
N
[-3 0 3 0] DP
S
GR
GS
[1 0 0 1 69.8475 798.87347] CT
1 0 0 RC
10.0 ML
N
[0 -3 0 3] DP
S
GR
GS
[1 0 0 1 69.8475 798.87347] CT
N
-0.352 -4.5 M
0.008 0.008 L
2.079 0.008 L
-0.352 -4.5 L
cp
clip
1 0 0 RC
10.0 ML
N
[-2 -2 2 2] DP
S
GR
GS
[1 0 0 1 69.8475 798.87347] CT
N
-0.352 -4.5 M
0.008 0.008 L
2.079 0.008 L
-0.352 -4.5 L
cp
clip
1 0 0 RC
10.0 ML
N
[-2 2 2 -2] DP
S
GR
GS
[1 0 0 1 69.8475 798.87347] CT
1 0 0 RC
10.0 ML
N
[-3 0 3 0] DP
S
GR
GS
[1 0 0 1 69.8475 798.87347] CT
1 0 0 RC
10.0 ML
N
[0 -3 0 3] DP
S
GR
GS
[1 0 0 1 69.8475 798.87347] CT
N
-0.352 -4.5 M
-0.352 -0.352 L
0.008 0.008 L
-0.352 -4.5 L
cp
clip
1 0 0 RC
10.0 ML
N
[-2 -2 2 2] DP
S
GR
GS
[1 0 0 1 69.8475 798.87347] CT
N
-0.352 -4.5 M
-0.352 -0.352 L
0.008 0.008 L
-0.352 -4.5 L
cp
clip
1 0 0 RC
10.0 ML
N
[-2 2 2 -2] DP
S
GR
GS
[1 0 0 1 69.8475 798.87347] CT
1 0 0 RC
10.0 ML
N
[-3 0 3 0] DP
S
GR
GS
[1 0 0 1 69.8475 798.87347] CT
1 0 0 RC
10.0 ML
N
[0 -3 0 3] DP
S
GR
GS
[1 0 0 1 69.8475 798.87347] CT
1 0 0 RC
10.0 ML
N
[-2 -2 2 2] DP
S
GR
GS
[1 0 0 1 69.8475 798.87347] CT
1 0 0 RC
10.0 ML
N
[-2 2 2 -2] DP
S
GR
GS
[1 0 0 1 69.8475 798.87347] CT
1 0 0 RC
10.0 ML
N
[-3 0 3 0] DP
S
GR
GS
[1 0 0 1 69.8475 798.87347] CT
1 0 0 RC
10.0 ML
N
[0 -3 0 3] DP
S
GR
GS
[1 0 0 1 69.8475 798.87347] CT
N
-0.352 -4.5 M
2.079 0.008 L
4.5 -4.5 L
cp
clip
1 0 0 RC
10.0 ML
N
[-2 -2 2 2] DP
S
GR
GS
[1 0 0 1 69.8475 798.87347] CT
N
-0.352 -4.5 M
2.079 0.008 L
4.5 -4.5 L
cp
clip
1 0 0 RC
10.0 ML
N
[-2 2 2 -2] DP
S
GR
GS
[1 0 0 1 70.195 798.87347] CT
1 0 0 RC
10.0 ML
N
[-3 0 3 0] DP
S
GR
GS
[1 0 0 1 70.195 798.87347] CT
1 0 0 RC
10.0 ML
N
[0 -3 0 3] DP
S
GR
GS
[1 0 0 1 70.195 798.87347] CT
N
-0.699 -0.699 M
-0.699 0.008 L
0.008 0.008 L
-0.699 -0.699 L
cp
clip
1 0 0 RC
10.0 ML
N
[-2 -2 2 2] DP
S
GR
GS
[1 0 0 1 70.195 798.87347] CT
N
-0.699 -0.699 M
-0.699 0.008 L
0.008 0.008 L
-0.699 -0.699 L
cp
clip
1 0 0 RC
10.0 ML
N
[-2 2 2 -2] DP
S
GR
GS
[1 0 0 1 70.195 798.87347] CT
1 0 0 RC
10.0 ML
N
[-3 0 3 0] DP
S
GR
GS
[1 0 0 1 70.195 798.87347] CT
1 0 0 RC
10.0 ML
N
[0 -3 0 3] DP
S
GR
GS
[1 0 0 1 70.195 798.87347] CT
N
-0.699 -4.5 M
0.008 0.008 L
1.905 0.008 L
-0.699 -4.5 L
cp
clip
1 0 0 RC
10.0 ML
N
[-2 -2 2 2] DP
S
GR
GS
[1 0 0 1 70.195 798.87347] CT
N
-0.699 -4.5 M
0.008 0.008 L
1.905 0.008 L
-0.699 -4.5 L
cp
clip
1 0 0 RC
10.0 ML
N
[-2 2 2 -2] DP
S
GR
GS
[1 0 0 1 70.195 798.87347] CT
1 0 0 RC
10.0 ML
N
[-3 0 3 0] DP
S
GR
GS
[1 0 0 1 70.195 798.87347] CT
1 0 0 RC
10.0 ML
N
[0 -3 0 3] DP
S
GR
GS
[1 0 0 1 70.195 798.87347] CT
N
-0.699 -4.5 M
-0.699 -0.699 L
0.008 0.008 L
-0.699 -4.5 L
cp
clip
1 0 0 RC
10.0 ML
N
[-2 -2 2 2] DP
S
GR
GS
[1 0 0 1 70.195 798.87347] CT
N
-0.699 -4.5 M
-0.699 -0.699 L
0.008 0.008 L
-0.699 -4.5 L
cp
clip
1 0 0 RC
10.0 ML
N
[-2 2 2 -2] DP
S
GR
GS
[1 0 0 1 70.195 798.87347] CT
1 0 0 RC
10.0 ML
N
[-3 0 3 0] DP
S
GR
GS
[1 0 0 1 70.195 798.87347] CT
1 0 0 RC
10.0 ML
N
[0 -3 0 3] DP
S
GR
GS
[1 0 0 1 70.195 798.87347] CT
N
4.5 -4.5 M
1.905 0.008 L
4.5 0.008 L
4.5 -4.5 L
cp
clip
1 0 0 RC
10.0 ML
N
[-2 -2 2 2] DP
S
GR
GS
[1 0 0 1 70.195 798.87347] CT
N
4.5 -4.5 M
1.905 0.008 L
4.5 0.008 L
4.5 -4.5 L
cp
clip
1 0 0 RC
10.0 ML
N
[-2 2 2 -2] DP
S
GR
GS
[1 0 0 1 70.195 798.87347] CT
1 0 0 RC
10.0 ML
N
[-3 0 3 0] DP
S
GR
GS
[1 0 0 1 70.195 798.87347] CT
1 0 0 RC
10.0 ML
N
[0 -3 0 3] DP
S
GR
GS
[1 0 0 1 70.195 798.87347] CT
N
-0.699 -4.5 M
1.905 0.008 L
4.5 -4.5 L
cp
clip
1 0 0 RC
10.0 ML
N
[-2 -2 2 2] DP
S
GR
GS
[1 0 0 1 70.195 798.87347] CT
N
-0.699 -4.5 M
1.905 0.008 L
4.5 -4.5 L
cp
clip
1 0 0 RC
10.0 ML
N
[-2 2 2 -2] DP
S
GR
GS
[1 0 0 1 139 796.24252] CT
1 0 0 RC
10.0 ML
N
[-3 0 3 0] DP
S
GR
GS
[1 0 0 1 139 796.24252] CT
1 0 0 RC
10.0 ML
N
[0 -3 0 3] DP
S
GR
GS
[1 0 0 1 139 796.24252] CT
N
-4.5 -4.5 M
-4.5 2.639 L
2.639 2.639 L
-4.5 -4.5 L
cp
clip
1 0 0 RC
10.0 ML
N
[-2 -2 2 2] DP
S
GR
GS
[1 0 0 1 139 796.24252] CT
N
-4.5 -4.5 M
-4.5 2.639 L
2.639 2.639 L
-4.5 -4.5 L
cp
clip
1 0 0 RC
10.0 ML
N
[-2 2 2 -2] DP
S
GR
GS
[1 0 0 1 139 796.24252] CT
1 0 0 RC
10.0 ML
N
[-3 0 3 0] DP
S
GR
GS
[1 0 0 1 139 796.24252] CT
1 0 0 RC
10.0 ML
N
[0 -3 0 3] DP
S
GR
GS
[1 0 0 1 139 796.24252] CT
1 0 0 RC
10.0 ML
N
[-2 -2 2 2] DP
S
GR
GS
[1 0 0 1 139 796.24252] CT
1 0 0 RC
10.0 ML
N
[-2 2 2 -2] DP
S
GR
GS
[1 0 0 1 139 796.24252] CT
1 0 0 RC
10.0 ML
N
[-3 0 3 0] DP
S
GR
GS
[1 0 0 1 139 796.24252] CT
1 0 0 RC
10.0 ML
N
[0 -3 0 3] DP
S
GR
GS
[1 0 0 1 139 796.24252] CT
N
-4.5 -4.5 M
2.639 2.639 L
4.5 -4.5 L
cp
clip
1 0 0 RC
10.0 ML
N
[-2 -2 2 2] DP
S
GR
GS
[1 0 0 1 139 796.24252] CT
N
-4.5 -4.5 M
2.639 2.639 L
4.5 -4.5 L
cp
clip
1 0 0 RC
10.0 ML
N
[-2 2 2 -2] DP
S
GR
GS
[1 0 0 1 208.5 769.87964] CT
1 0 0 RC
10.0 ML
N
[-3 0 3 0] DP
S
GR
GS
[1 0 0 1 208.5 769.87964] CT
1 0 0 RC
10.0 ML
N
[0 -3 0 3] DP
S
GR
GS
[1 0 0 1 208.5 769.87964] CT
1 0 0 RC
10.0 ML
N
[-2 -2 2 2] DP
S
GR
GS
[1 0 0 1 208.5 769.87964] CT
1 0 0 RC
10.0 ML
N
[-2 2 2 -2] DP
S
GR
GS
[1 0 0 1 278 697.09071] CT
1 0 0 RC
10.0 ML
N
[-3 0 3 0] DP
S
GR
GS
[1 0 0 1 278 697.09071] CT
1 0 0 RC
10.0 ML
N
[0 -3 0 3] DP
S
GR
GS
[1 0 0 1 278 697.09071] CT
1 0 0 RC
10.0 ML
N
[-2 -2 2 2] DP
S
GR
GS
[1 0 0 1 278 697.09071] CT
1 0 0 RC
10.0 ML
N
[-2 2 2 -2] DP
S
GR
GS
[1 0 0 1 417 328.47457] CT
1 0 0 RC
10.0 ML
N
[-3 0 3 0] DP
S
GR
GS
[1 0 0 1 417 328.47457] CT
1 0 0 RC
10.0 ML
N
[0 -3 0 3] DP
S
GR
GS
[1 0 0 1 417 328.47457] CT
1 0 0 RC
10.0 ML
N
[-2 -2 2 2] DP
S
GR
GS
[1 0 0 1 417 328.47457] CT
1 0 0 RC
10.0 ML
N
[-2 2 2 -2] DP
S
GR
GS
N
69.496 114.118 M
486.504 114.118 L
486.504 798.882 L
69.496 798.882 L
69.496 114.118 L
cp
clip
0 0 1 RC
10.0 ML
N
[69.5 798.875 73.361 798.874 77.222 798.87 81.083 798.857 84.944 798.833 88.806 798.793 92.667 798.734 96.528 798.651 100.389 798.541 104.25 798.399 108.111 798.223 111.972 798.007 115.833 797.748 119.694 797.442 123.556 797.085 127.417 796.674 131.278 796.203 135.139 795.67 139 795.071 142.861 794.401 146.722 793.657 150.583 792.834 154.444 791.929 158.306 790.939 162.167 789.858 166.028 788.683 169.889 787.41 173.75 786.036 177.611 784.556 181.472 782.966 185.333 781.263 189.194 779.443 193.056 777.501 196.917 775.434 200.778 773.237 204.639 770.908 208.5 768.442 212.361 765.834 216.222 763.082 220.083 760.182 223.944 757.128 227.806 753.918 231.667 750.548 235.528 747.013 239.389 743.31 243.25 739.435 247.111 735.384 250.972 731.152 254.833 726.737 258.694 722.134 262.556 717.339 266.417 712.348 270.278 707.158 274.139 701.764 278 696.162 281.861 690.35 285.722 684.322 289.583 678.075 293.444 671.605 297.306 664.908 301.167 657.98 305.028 650.817 308.889 643.416 312.75 635.771 316.611 627.881 320.472 619.739 324.333 611.344 328.194 602.69 332.056 593.774 335.917 584.591 339.778 575.139 343.639 565.413 347.5 555.408 351.361 545.122 355.222 534.551 359.083 523.689 362.944 512.534 366.806 501.082 370.667 489.329 374.528 477.27 378.389 464.902 382.25 452.22 386.111 439.222 389.972 425.903 393.833 412.259 397.694 398.286 401.556 383.981 405.417 369.339 409.278 354.356 413.139 339.029 417 323.354 420.861 307.327 424.722 290.943 428.583 274.199 432.444 257.092 436.306 239.616 440.167 221.769 444.028 203.546 447.889 184.943 451.75 165.957] DP
S
GR
GS
10.0 ML
N
[69.5 798.875 69.5 114.125 69.5 114.125 486.5 114.125 486.5 798.875 486.5 798.875 69.5 798.875] DP
S
GR
GS
10.0 ML
N
[486.5 114.125 69.5 114.125] DP
S
GR
GS
10.0 ML
N
[486.5 114.125 486.5 798.875] DP
S
GR
GS
10.0 ML
N
[486.5 114.125 486.5 114.125] DP
S
GR
/HelveticaLatin1 10 F
GS
[1 0 0 1 188.5 90] CT
1.906 11.502 M 1 -1 scale
(Temps d'ex\351cution des benchmarks) t
GR
%%Trailer
%%Pages: 1
%%EOF
